{
  "faculty": [
    {
      "error": false,
      "name": "Abc",
      "id": "124",
      "password": "qwerty",
      "semesters": [
        {
          "sem": "4",
          "section": "A",
          "sub": "ncs-401"
        },
        {
          "sem": "6",
          "section": "B",
          "sub": "ncs-601"
        }
      ]
    },
    {
      "error": false,
      "name": "Xyz",
      "id": "234",
      "password": "qwerty123",
      "semesters": [
        {
          "sem": "8",
          "section": "A",
          "sub": "ncs-801"
        },
        {
          "sem": "8",
          "section": "A",
          "sub": "ncs-081"
        },
        {
          "sem": "8",
          "section": "A",
          "sub": "ncs-085"
        },
        {
          "sem": "8",
          "section": "A",
          "sub": "eoe-801"
        }
      ]
    }
  ]
}
