{
  "students": [
    {
      "error": false,
      "name": "Aakshi Mittal",
      "rollNumber": "1302910001",
      "semester": "8",
      "section": "A"
    },
    {
      "error": false,
      "name": "Aayushi Jain",
      "rollNumber": "1302910002",
      "semester": "8",
      "section": "A"
    },
    {
      "error": false,
      "name": "Abhinav Purwar",
      "rollNumber": "1302910003",
      "semester": "8",
      "section": "A"
    },
    {
      "error": false,
      "name": "Abhishek Agarwal",
      "rollNumber": "1302910004",
      "semester": "8",
      "section": "A"
    },
    {
      "error": false,
      "name": "Abhishek Chaudhary",
      "rollNumber": "1302910005",
      "semester": "8",
      "section": "A"
    },
    {
      "error": false,
      "name": "Abhishek Gupta",
      "rollNumber": "1302910006",
      "semester": "8",
      "section": "A"
    },
    {
      "error": false,
      "name": "Abhishek Kumar Gupta",
      "rollNumber": "1302910007",
      "semester": "8",
      "section": "A"
    },
    {
      "error": false,
      "name": "Abhishek Upadhyay",
      "rollNumber": "1302910008",
      "semester": "8",
      "section": "A"
    },
    {
      "error": false,
      "name": "Aditi Nagar",
      "rollNumber": "1302910009",
      "semester": "8",
      "section": "A"
    },
    {
      "error": false,
      "name": "Ahmad Jamal",
      "rollNumber": "1302910010",
      "semester": "8",
      "section": "A"
    },
    {
      "error": false,
      "name": "Aishvary Pratap Singh",
      "rollNumber": "1302910011",
      "semester": "8",
      "section": "A"
    },
    {
      "error": false,
      "name": "Ajay Kumar Kharwar",
      "rollNumber": "1302910012",
      "semester": "8",
      "section": "A"
    },
    {
      "error": false,
      "name": "Akanksha Baranwal",
      "rollNumber": "1302910013",
      "semester": "8",
      "section": "A"
    },
    {
      "error": false,
      "name": "Akash Dwivedi",
      "rollNumber": "1302910014",
      "semester": "8",
      "section": "A"
    },
    {
      "error": false,
      "name": "Akash Roshan",
      "rollNumber": "1302910015",
      "semester": "8",
      "section": "A"
    },
    {
      "error": false,
      "name": "Akshay Kumar",
      "rollNumber": "1302910016",
      "semester": "8",
      "section": "A"
    },
    {
      "error": false,
      "name": "Aman Bindra",
      "rollNumber": "1302910017",
      "semester": "8",
      "section": "A"
    },
    {
      "error": false,
      "name": "Aman Jadon",
      "rollNumber": "1302910018",
      "semester": "8",
      "section": "A"
    },
    {
      "error": false,
      "name": "Aman Jain",
      "rollNumber": "1302910019",
      "semester": "8",
      "section": "A"
    },
    {
      "error": false,
      "name": "Aman Omer",
      "rollNumber": "1302910020",
      "semester": "8",
      "section": "A"
    },
    {
      "error": false,
      "name": "Aman Ratnam",
      "rollNumber": "1302910021",
      "semester": "8",
      "section": "A"
    },
    {
      "error": false,
      "name": "Amrita Tripathi",
      "rollNumber": "1302910022",
      "semester": "8",
      "section": "A"
    },
    {
      "error": false,
      "name": "Ankit Agarwal",
      "rollNumber": "1302910023",
      "semester": "8",
      "section": "A"
    },
    {
      "error": false,
      "name": "Ankit Malhotra",
      "rollNumber": "1302910024",
      "semester": "8",
      "section": "A"
    },
    {
      "error": false,
      "name": "Ankit Malik",
      "rollNumber": "1302910025",
      "semester": "8",
      "section": "A"
    },
    {
      "error": false,
      "name": "Ankit Sharma",
      "rollNumber": "1302910026",
      "semester": "8",
      "section": "A"
    },
    {
      "error": false,
      "name": "Ankur Chaurasia",
      "rollNumber": "1302910027",
      "semester": "8",
      "section": "A"
    },
    {
      "error": false,
      "name": "Anoop Bhadauria",
      "rollNumber": "1302910028",
      "semester": "8",
      "section": "A"
    },
    {
      "error": false,
      "name": "Anshi Srivastava",
      "rollNumber": "1302910029",
      "semester": "8",
      "section": "A"
    },
    {
      "error": false,
      "name": "Anshika Agarwal",
      "rollNumber": "1302910030",
      "semester": "8",
      "section": "A"
    },
    {
      "error": false,
      "name": "Anurag Jaiswal",
      "rollNumber": "1302910031",
      "semester": "8",
      "section": "A"
    },
    {
      "error": false,
      "name": "Anushtha Singh",
      "rollNumber": "1302910032",
      "semester": "8",
      "section": "A"
    },
    {
      "error": false,
      "name": "Apoorva",
      "rollNumber": "1302910033",
      "semester": "8",
      "section": "A"
    },
    {
      "error": false,
      "name": "Apurva Rana",
      "rollNumber": "1302910034",
      "semester": "8",
      "section": "A"
    },
    {
      "error": false,
      "name": "Arpit Tyagi",
      "rollNumber": "1302910035",
      "semester": "8",
      "section": "A"
    },
    {
      "error": false,
      "name": "Arpita Yadav",
      "rollNumber": "1302910036",
      "semester": "8",
      "section": "A"
    },
    {
      "error": false,
      "name": "Arshika Singhal",
      "rollNumber": "1302910037",
      "semester": "8",
      "section": "A"
    },
    {
      "error": false,
      "name": "Ashish Tehri",
      "rollNumber": "1302910038",
      "semester": "8",
      "section": "A"
    },
    {
      "error": false,
      "name": "Ashmit Dadhich",
      "rollNumber": "1302910039",
      "semester": "8",
      "section": "A"
    },
    {
      "error": false,
      "name": "Ashu Tyagi",
      "rollNumber": "1302910040",
      "semester": "8",
      "section": "A"
    },
    {
      "error": false,
      "name": "Avadesh Sharma",
      "rollNumber": "1302910041",
      "semester": "8",
      "section": "A"
    },
    {
      "error": false,
      "name": "Avi Kanchan",
      "rollNumber": "1302910043",
      "semester": "8",
      "section": "A"
    },
    {
      "error": false,
      "name": "Ayush Gupta",
      "rollNumber": "1302910044",
      "semester": "8",
      "section": "A"
    },
    {
      "error": false,
      "name": "Ayushi Agarwal",
      "rollNumber": "1302910045",
      "semester": "8",
      "section": "A"
    },
    {
      "error": false,
      "name": "Chirag Gupta",
      "rollNumber": "1302910046",
      "semester": "8",
      "section": "A"
    },
    {
      "error": false,
      "name": "Deepali Mittal",
      "rollNumber": "1302910047",
      "semester": "8",
      "section": "A"
    },
    {
      "error": false,
      "name": "Devanshu Gupta",
      "rollNumber": "1302910048",
      "semester": "8",
      "section": "A"
    },
    {
      "error": false,
      "name": "Dharmendra Patel",
      "rollNumber": "1302910049",
      "semester": "8",
      "section": "A"
    },
    {
      "error": false,
      "name": "Dhirendra Singh",
      "rollNumber": "1302910050",
      "semester": "8",
      "section": "A"
    },
    {
      "error": false,
      "name": "Dhruv Kaushik",
      "rollNumber": "1302910051",
      "semester": "8",
      "section": "A"
    },
    {
      "error": false,
      "name": "Divya Malik",
      "rollNumber": "1302910052",
      "semester": "8",
      "section": "A"
    },
    {
      "error": false,
      "name": "Divyanshu Chauhan",
      "rollNumber": "1302910053",
      "semester": "8",
      "section": "A"
    },
    {
      "error": false,
      "name": "Drishti Kansal",
      "rollNumber": "1302910054",
      "semester": "8",
      "section": "A"
    },
    {
      "error": false,
      "name": "Govind Kumar",
      "rollNumber": "1302910062",
      "semester": "8",
      "section": "A"
    },
    {
      "error": false,
      "name": "Harsh Deep Singh",
      "rollNumber": "13002910064",
      "semester": "8",
      "section": "A"
    },
    {
      "error": false,
      "name": "Aman Gupta",
      "rollNumber": "1402910015",
      "semester": "8",
      "section": "A"
    },
    {
      "error": false,
      "name": "Arun Tripathi",
      "rollNumber": "1402910016",
      "semester": "8",
      "section": "A"
    },
    {
      "error": false,
      "name": "Chandra Bhusan Tripathi",
      "rollNumber": "1402910017",
      "semester": "8",
      "section": "A"
    },
    {
      "error": false,
      "name": "Deeksha Singh",
      "rollNumber": "1402910018",
      "semester": "8",
      "section": "A"
    }
  ]
}
